Kushen Pipeline
…
blast

## # A tibble: 90 x 3
##      bin Assembly        count
##    <dbl> <chr>           <dbl>
##  1   100 count_Assembly1  4763
##  2   100 count_Assembly9  6807
##  3   100 count_Assembly8  6843
##  4   100 count_Assembly5  6030
##  5   100 count_Assembly4  6019
##  6   100 count_Assembly2  4940
##  7   100 count_Assembly3  4689
##  8   100 count_Assembly7  6349
##  9   100 count_Assembly6  6373
## 10    90 count_Assembly1  1381
## #  with 80 more rows
…
